GBC046 - AOC2/Ex 4/Exercise4/exercise2/simulation/qsim/exercise2.msim.vcd
$comment
	File created using the following command:
		vcd file exercise2.msim.vcd -direction
$end
$date
	Mon Oct 16 14:40:27 2017
$end
$version
	ModelSim Version 10.5b
$end
$timescale
	1ps
$end

$scope module exercise2_vlg_vec_tst $end
$var reg 4 ! a [3:0] $end
$var wire 1 " y [1] $end
$var wire 1 # y [0] $end

$scope module i1 $end
$var wire 1 $ gnd $end
$var wire 1 % vcc $end
$var wire 1 & unknown $end
$var tri1 1 ' devclrn $end
$var tri1 1 ( devpor $end
$var tri1 1 ) devoe $end
$var wire 1 * a[3]~input_o $end
$var wire 1 + y[0]~output_o $end
$var wire 1 , y[1]~output_o $end
$var wire 1 - a[2]~input_o $end
$var wire 1 . a[1]~input_o $end
$var wire 1 / a[0]~input_o $end
$var wire 1 0 y~0_combout $end
$var wire 1 1 y~1_combout $end
$upscope $end
$upscope $end
$enddefinitions $end
#0
$dumpvars
b0 !
x#
x"
0$
1%
x&
1'
1(
1)
0*
x+
x,
0-
0.
0/
x0
x1
$end
#3448
01
#3914
00
#6759
0,
0"
#7217
0+
0#
#40000
b1 !
#40669
1/
#43871
10
11
#47256
1+
1#
#47274
1,
1"
#80000
b11 !
b10 !
#80679
1.
#80775
0/
#84224
00
#87527
0+
0#
#120000
b11 !
#120669
1/
#123871
10
#127256
1+
1#
#160000
b111 !
b101 !
b100 !
#160649
1-
#160775
0/
#160785
0.
#164223
01
#167534
0,
0"
#200000
b101 !
#200669
1/
#203871
11
#207274
1,
1"
#240000
b111 !
b110 !
#240679
1.
#240775
0/
#244224
00
#247527
0+
0#
#280000
b111 !
#280669
1/
#283871
10
#287256
1+
1#
#320000
b1111 !
b1011 !
b1001 !
b1000 !
1*
#320755
0-
#320775
0/
#320785
0.
#324223
01
#324669
00
#327534
0,
0"
#327972
0+
0#
#360000
b1001 !
#360669
1/
#363871
10
11
#367256
1+
1#
#367274
1,
1"
#400000
b1011 !
b1010 !
#400679
1.
#400775
0/
#404224
00
#407527
0+
0#
#440000
b1011 !
#440669
1/
#443871
10
#447256
1+
1#
#480000
b1111 !
b1101 !
b1100 !
#480649
1-
#480775
0/
#480785
0.
#484223
01
#487534
0,
0"
#520000
b1101 !
#520669
1/
#523871
11
#527274
1,
1"
#560000
b1111 !
b1110 !
#560679
1.
#560775
0/
#564224
00
#567527
0+
0#
#600000
b1111 !
#600669
1/
#603871
10
#607256
1+
1#
#640000
b111 !
b11 !
b1 !
b0 !
0*
#640755
0-
#640775
0/
#640785
0.
#644223
01
#644669
00
#647534
0,
0"
#647972
0+
0#
#680000
b1 !
#680669
1/
#683871
10
11
#687256
1+
1#
#687274
1,
1"
#720000
b11 !
b10 !
#720679
1.
#720775
0/
#724224
00
#727527
0+
0#
#760000
b11 !
#760669
1/
#763871
10
#767256
1+
1#
#800000
b111 !
b101 !
b100 !
#800649
1-
#800775
0/
#800785
0.
#804223
01
#807534
0,
0"
#840000
b101 !
#840669
1/
#843871
11
#847274
1,
1"
#880000
b111 !
b110 !
#880679
1.
#880775
0/
#884224
00
#887527
0+
0#
#920000
b111 !
#920669
1/
#923871
10
#927256
1+
1#
#960000
b1111 !
b1011 !
b1001 !
b1000 !
1*
#960755
0-
#960775
0/
#960785
0.
#964223
01
#964669
00
#967534
0,
0"
#967972
0+
0#
